sample	name
ERR3508062	T01_S10
ERR3508063	T01_S10
ERR3508064	T01_S10
ERR3508065	T01_S10
ERR3508066	T01_S15
ERR3508067	T01_S15
ERR3508068	T01_S15
ERR3508069	T01_S15
ERR3508070	T01_S20
ERR3508071	T01_S20
ERR3508072	T01_S20
ERR3508073	T01_S20
ERR3508074	T01_S25
ERR3508075	T01_S25
ERR3508076	T01_S25
ERR3508077	T01_S25
ERR3508078	T02_S05
ERR3508079	T02_S05
ERR3508080	T02_S05
ERR3508081	T02_S05
ERR3508082	T02_S10
ERR3508083	T02_S10
ERR3508084	T02_S10
ERR3508085	T02_S10
ERR3508086	T02_S15
ERR3508087	T02_S15
ERR3508088	T02_S15
ERR3508089	T02_S15
ERR3508090	T02_S20
ERR3508091	T02_S20
ERR3508092	T02_S20
ERR3508093	T02_S20
ERR3508094	T03_S05
ERR3508095	T03_S05
ERR3508096	T03_S05
ERR3508097	T03_S05
ERR3508098	T03_S10
ERR3508099	T03_S10
ERR3508100	T03_S10
ERR3508101	T03_S10
ERR3508102	T03_S15
ERR3508103	T03_S15
ERR3508104	T03_S15
ERR3508105	T03_S15
ERR3508106	T03_S20
ERR3508107	T03_S20
ERR3508108	T03_S20
ERR3508109	T03_S20
ERR3508110	T04_S05
ERR3508111	T04_S05
ERR3508112	T04_S05
ERR3508113	T04_S05
ERR3508114	T04_S10
ERR3508115	T04_S10
ERR3508116	T04_S10
ERR3508117	T04_S10
ERR3508118	T04_S15
ERR3508119	T04_S15
ERR3508120	T04_S15
ERR3508121	T04_S15
ERR3508122	T04_S20
ERR3508123	T04_S20
ERR3508124	T04_S20
ERR3508125	T04_S20
ERR3508126	T05_S05
ERR3508127	T05_S05
ERR3508128	T05_S05
ERR3508129	T05_S05
ERR3508130	T05_S10
ERR3508131	T05_S10
ERR3508132	T05_S10
ERR3508133	T05_S10
ERR3508134	T05_S15
ERR3508135	T05_S15
ERR3508136	T05_S15
ERR3508137	T05_S15
ERR3508138	T05_S20
ERR3508139	T05_S20
ERR3508140	T05_S20
ERR3508141	T05_S20
ERR3508142	T06_S05
ERR3508143	T06_S05
ERR3508144	T06_S05
ERR3508145	T06_S05
ERR3508146	T06_S10
ERR3508147	T06_S10
ERR3508148	T06_S10
ERR3508149	T06_S10
ERR3508150	T06_S15
ERR3508151	T06_S15
ERR3508152	T06_S15
ERR3508153	T06_S15
ERR3508154	T06_S20
ERR3508155	T06_S20
ERR3508156	T06_S20
ERR3508157	T06_S20
ERR3508158	T07_S05
ERR3508159	T07_S05
ERR3508160	T07_S05
ERR3508161	T07_S05
ERR3508162	T07_S10
ERR3508163	T07_S10
ERR3508164	T07_S10
ERR3508165	T07_S10
ERR3508166	T07_S15
ERR3508167	T07_S15
ERR3508168	T07_S15
ERR3508169	T07_S15
ERR3508170	T07_S20
ERR3508171	T07_S20
ERR3508172	T07_S20
ERR3508173	T07_S20
ERR3508174	T08_S05
ERR3508175	T08_S05
ERR3508176	T08_S05
ERR3508177	T08_S05
ERR3508178	T08_S10
ERR3508179	T08_S10
ERR3508180	T08_S10
ERR3508181	T08_S10
ERR3508182	T08_S15
ERR3508183	T08_S15
ERR3508184	T08_S15
ERR3508185	T08_S15
ERR3508186	T08_S20
ERR3508187	T08_S20
ERR3508188	T08_S20
ERR3508189	T08_S20
ERR3508190	T09_S05
ERR3508191	T09_S05
ERR3508192	T09_S05
ERR3508193	T09_S05
ERR3508194	T09_S10
ERR3508195	T09_S10
ERR3508196	T09_S10
ERR3508197	T09_S10
ERR3508198	T09_S15
ERR3508199	T09_S15
ERR3508200	T09_S15
ERR3508201	T09_S15
ERR3508202	T09_S20
ERR3508203	T09_S20
ERR3508204	T09_S20
ERR3508205	T09_S20
ERR3508206	T10_S05
ERR3508207	T10_S05
ERR3508208	T10_S05
ERR3508209	T10_S05
ERR3508210	T10_S10
ERR3508211	T10_S10
ERR3508212	T10_S10
ERR3508213	T10_S10
ERR3508214	T10_S15
ERR3508215	T10_S15
ERR3508216	T10_S15
ERR3508217	T10_S15
ERR3508218	T10_S20
ERR3508219	T10_S20
ERR3508220	T10_S20
ERR3508221	T10_S20
ERR3508222	T11_S05
ERR3508223	T11_S05
ERR3508224	T11_S05
ERR3508225	T11_S05
ERR3508226	T11_S10
ERR3508227	T11_S10
ERR3508228	T11_S10
ERR3508229	T11_S10
ERR3508230	T11_S15
ERR3508231	T11_S15
ERR3508232	T11_S15
ERR3508233	T11_S15
ERR3508234	T11_S20
ERR3508235	T11_S20
ERR3508236	T11_S20
ERR3508237	T11_S20
ERR3508238	T12_S05
ERR3508239	T12_S05
ERR3508240	T12_S05
ERR3508241	T12_S05
ERR3508242	T12_S10
ERR3508243	T12_S10
ERR3508244	T12_S10
ERR3508245	T12_S10
ERR3508246	T12_S15
ERR3508247	T12_S15
ERR3508248	T12_S15
ERR3508249	T12_S15
ERR3508250	T12_S20
ERR3508251	T12_S20
ERR3508252	T12_S20
ERR3508253	T12_S20
ERR3508254	T13_S05
ERR3508255	T13_S05
ERR3508256	T13_S05
ERR3508257	T13_S05
ERR3508258	T13_S10
ERR3508259	T13_S10
ERR3508260	T13_S10
ERR3508261	T13_S10
ERR3508262	T13_S15
ERR3508263	T13_S15
ERR3508264	T13_S15
ERR3508265	T13_S15
ERR3508266	T13_S20
ERR3508267	T13_S20
ERR3508268	T13_S20
ERR3508269	T13_S20
ERR3508270	T14_S05
ERR3508271	T14_S05
ERR3508272	T14_S05
ERR3508273	T14_S05
ERR3508274	T14_S10
ERR3508275	T14_S10
ERR3508276	T14_S10
ERR3508277	T14_S10
ERR3508278	T14_S15
ERR3508279	T14_S15
ERR3508280	T14_S15
ERR3508281	T14_S15
ERR3508282	T14_S20
ERR3508283	T14_S20
ERR3508284	T14_S20
ERR3508285	T14_S20
ERR3508286	T15_S05
ERR3508287	T15_S05
ERR3508288	T15_S05
ERR3508289	T15_S05
ERR3508290	T15_S10
ERR3508291	T15_S10
ERR3508292	T15_S10
ERR3508293	T15_S10
ERR3508294	T15_S15
ERR3508295	T15_S15
ERR3508296	T15_S15
ERR3508297	T15_S15
ERR3508298	T15_S20
ERR3508299	T15_S20
ERR3508300	T15_S20
ERR3508301	T15_S20
ERR3508302	T16_S05
ERR3508303	T16_S05
ERR3508304	T16_S05
ERR3508305	T16_S05
ERR3508306	T16_S10
ERR3508307	T16_S10
ERR3508308	T16_S10
ERR3508309	T16_S10
ERR3508310	T16_S15
ERR3508311	T16_S15
ERR3508312	T16_S15
ERR3508313	T16_S15
ERR3508314	T16_S20
ERR3508315	T16_S20
ERR3508316	T16_S20
ERR3508317	T16_S20
ERR3508318	T17_S05
ERR3508319	T17_S05
ERR3508320	T17_S05
ERR3508321	T17_S05
ERR3508322	T17_S16
ERR3508323	T17_S16
ERR3508324	T17_S16
ERR3508325	T17_S16
ERR3508326	T17_S20
ERR3508327	T17_S20
ERR3508328	T17_S20
ERR3508329	T17_S20
ERR3508330	T17_S25
ERR3508331	T17_S25
ERR3508332	T17_S25
ERR3508333	T17_S25
ERR3508334	T18_S05
ERR3508335	T18_S05
ERR3508336	T18_S05
ERR3508337	T18_S05
ERR3508338	T18_S10
ERR3508339	T18_S10
ERR3508340	T18_S10
ERR3508341	T18_S10
ERR3508342	T18_S15
ERR3508343	T18_S15
ERR3508344	T18_S15
ERR3508345	T18_S15
ERR3508346	T18_S20
ERR3508347	T18_S20
ERR3508348	T18_S20
ERR3508349	T18_S20
ERR3508350	T19_S05
ERR3508351	T19_S05
ERR3508352	T19_S05
ERR3508353	T19_S05
ERR3508354	T19_S10
ERR3508355	T19_S10
ERR3508356	T19_S10
ERR3508357	T19_S10
ERR3508358	T19_S14
ERR3508359	T19_S14
ERR3508360	T19_S14
ERR3508361	T19_S14
ERR3508362	T19_S30
ERR3508363	T19_S30
ERR3508364	T19_S30
ERR3508365	T19_S30
ERR3508366	T20_S05
ERR3508367	T20_S05
ERR3508368	T20_S05
ERR3508369	T20_S05
ERR3508370	T20_S10
ERR3508371	T20_S10
ERR3508372	T20_S10
ERR3508373	T20_S10
ERR3508374	T20_S15
ERR3508375	T20_S15
ERR3508376	T20_S15
ERR3508377	T20_S15
ERR3508378	T20_S20
ERR3508379	T20_S20
ERR3508380	T20_S20
ERR3508381	T20_S20
ERR3508382	T21_S05
ERR3508383	T21_S05
ERR3508384	T21_S05
ERR3508385	T21_S05
ERR3508386	T21_S10
ERR3508387	T21_S10
ERR3508388	T21_S10
ERR3508389	T21_S10
ERR3508390	T21_S15
ERR3508391	T21_S15
ERR3508392	T21_S15
ERR3508393	T21_S15
ERR3508394	T21_S20
ERR3508395	T21_S20
ERR3508396	T21_S20
ERR3508397	T21_S20
ERR3508398	T22_S05
ERR3508399	T22_S05
ERR3508400	T22_S05
ERR3508401	T22_S05
ERR3508402	T22_S20
ERR3508403	T22_S20
ERR3508404	T22_S20
ERR3508405	T22_S20
ERR3508406	T22_S25
ERR3508407	T22_S25
ERR3508408	T22_S25
ERR3508409	T22_S25
ERR3508410	T22_S30
ERR3508411	T22_S30
ERR3508412	T22_S30
ERR3508413	T22_S30
ERR3508414	T23_S05
ERR3508415	T23_S05
ERR3508416	T23_S05
ERR3508417	T23_S05
ERR3508418	T23_S10
ERR3508419	T23_S10
ERR3508420	T23_S10
ERR3508421	T23_S10
ERR3508422	T23_S15
ERR3508423	T23_S15
ERR3508424	T23_S15
ERR3508425	T23_S15
ERR3508426	T23_S20
ERR3508427	T23_S20
ERR3508428	T23_S20
ERR3508429	T23_S20
ERR3508430	T24_S05
ERR3508431	T24_S05
ERR3508432	T24_S05
ERR3508433	T24_S05
ERR3508434	T24_S10
ERR3508435	T24_S10
ERR3508436	T24_S10
ERR3508437	T24_S10
ERR3508438	T24_S15
ERR3508439	T24_S15
ERR3508440	T24_S15
ERR3508441	T24_S15
ERR3508442	T24_S25
ERR3508443	T24_S25
ERR3508444	T24_S25
ERR3508445	T24_S25
ERR3508446	T25_S05
ERR3508447	T25_S05
ERR3508448	T25_S05
ERR3508449	T25_S05
ERR3508450	T25_S10
ERR3508451	T25_S10
ERR3508452	T25_S10
ERR3508453	T25_S10
ERR3508454	T25_S15
ERR3508455	T25_S15
ERR3508456	T25_S15
ERR3508457	T25_S15
ERR3508458	T25_S20
ERR3508459	T25_S20
ERR3508460	T25_S20
ERR3508461	T25_S20
ERR3508462	T26_S05
ERR3508463	T26_S05
ERR3508464	T26_S05
ERR3508465	T26_S05
ERR3508466	T26_S10
ERR3508467	T26_S10
ERR3508468	T26_S10
ERR3508469	T26_S10
ERR3508470	T26_S15
ERR3508471	T26_S15
ERR3508472	T26_S15
ERR3508473	T26_S15
ERR3508474	T26_S20
ERR3508475	T26_S20
ERR3508476	T26_S20
ERR3508477	T26_S20
ERR3508478	T27_S05
ERR3508479	T27_S05
ERR3508480	T27_S05
ERR3508481	T27_S05
ERR3508482	T27_S10
ERR3508483	T27_S10
ERR3508484	T27_S10
ERR3508485	T27_S10
ERR3508486	T27_S15
ERR3508487	T27_S15
ERR3508488	T27_S15
ERR3508489	T27_S15
ERR3508490	T27_S20
ERR3508491	T27_S20
ERR3508492	T27_S20
ERR3508493	T27_S20
ERR3508494	T28_S05
ERR3508495	T28_S05
ERR3508496	T28_S05
ERR3508497	T28_S05
ERR3508498	T28_S10
ERR3508499	T28_S10
ERR3508500	T28_S10
ERR3508501	T28_S10
ERR3508502	T28_S15
ERR3508503	T28_S15
ERR3508504	T28_S15
ERR3508505	T28_S15
ERR3508506	T28_S20
ERR3508507	T28_S20
ERR3508508	T28_S20
ERR3508509	T28_S20
ERR3508510	T29_S05
ERR3508511	T29_S05
ERR3508512	T29_S05
ERR3508513	T29_S05
ERR3508514	T29_S10
ERR3508515	T29_S10
ERR3508516	T29_S10
ERR3508517	T29_S10
ERR3508518	T29_S15
ERR3508519	T29_S15
ERR3508520	T29_S15
ERR3508521	T29_S15
ERR3508522	T29_S20
ERR3508523	T29_S20
ERR3508524	T29_S20
ERR3508525	T29_S20
ERR3508526	T30_S05
ERR3508527	T30_S05
ERR3508528	T30_S05
ERR3508529	T30_S05
ERR3508530	T30_S09
ERR3508531	T30_S09
ERR3508532	T30_S09
ERR3508533	T30_S09
ERR3508534	T30_S15
ERR3508535	T30_S15
ERR3508536	T30_S15
ERR3508537	T30_S15
ERR3508538	T30_S20
ERR3508539	T30_S20
ERR3508540	T30_S20
ERR3508541	T30_S20
ERR3508542	T31_S05
ERR3508543	T31_S05
ERR3508544	T31_S05
ERR3508545	T31_S05
ERR3508546	T31_S10
ERR3508547	T31_S10
ERR3508548	T31_S10
ERR3508549	T31_S10
ERR3508550	T31_S15
ERR3508551	T31_S15
ERR3508552	T31_S15
ERR3508553	T31_S15
ERR3508554	T31_S25
ERR3508555	T31_S25
ERR3508556	T31_S25
ERR3508557	T31_S25
ERR3508558	T32_S05
ERR3508559	T32_S05
ERR3508560	T32_S05
ERR3508561	T32_S05
ERR3508562	T32_S10
ERR3508563	T32_S10
ERR3508564	T32_S10
ERR3508565	T32_S10
ERR3508566	T32_S15
ERR3508567	T32_S15
ERR3508568	T32_S15
ERR3508569	T32_S15
ERR3508570	T32_S20
ERR3508571	T32_S20
ERR3508572	T32_S20
ERR3508573	T32_S20
ERR3508574	T33_S05
ERR3508575	T33_S05
ERR3508576	T33_S05
ERR3508577	T33_S05
ERR3508578	T33_S10
ERR3508579	T33_S10
ERR3508580	T33_S10
ERR3508581	T33_S10
ERR3508582	T33_S15
ERR3508583	T33_S15
ERR3508584	T33_S15
ERR3508585	T33_S15
ERR3508586	T33_S20
ERR3508587	T33_S20
ERR3508588	T33_S20
ERR3508589	T33_S20
ERR3508590	T34_S05
ERR3508591	T34_S05
ERR3508592	T34_S05
ERR3508593	T34_S05
ERR3508594	T34_S10
ERR3508595	T34_S10
ERR3508596	T34_S10
ERR3508597	T34_S10
ERR3508598	T34_S15
ERR3508599	T34_S15
ERR3508600	T34_S15
ERR3508601	T34_S15
ERR3508602	T34_S20
ERR3508603	T34_S20
ERR3508604	T34_S20
ERR3508605	T34_S20
ERR3508606	T35_S05
ERR3508607	T35_S05
ERR3508608	T35_S05
ERR3508609	T35_S05
ERR3508610	T35_S10
ERR3508611	T35_S10
ERR3508612	T35_S10
ERR3508613	T35_S10
ERR3508614	T35_S15
ERR3508615	T35_S15
ERR3508616	T35_S15
ERR3508617	T35_S15
ERR3508618	T35_S20
ERR3508619	T35_S20
ERR3508620	T35_S20
ERR3508621	T35_S20
ERR3508622	T36_S05
ERR3508623	T36_S05
ERR3508624	T36_S05
ERR3508625	T36_S05
ERR3508626	T36_S10
ERR3508627	T36_S10
ERR3508628	T36_S10
ERR3508629	T36_S10
ERR3508630	T36_S15
ERR3508631	T36_S15
ERR3508632	T36_S15
ERR3508633	T36_S15
ERR3508634	T36_S20
ERR3508635	T36_S20
ERR3508636	T36_S20
ERR3508637	T36_S20
ERR3508638	T37_S05
ERR3508639	T37_S05
ERR3508640	T37_S05
ERR3508641	T37_S05
ERR3508642	T37_S10
ERR3508643	T37_S10
ERR3508644	T37_S10
ERR3508645	T37_S10
ERR3508646	T37_S15
ERR3508647	T37_S15
ERR3508648	T37_S15
ERR3508649	T37_S15
ERR3508650	T37_S20
ERR3508651	T37_S20
ERR3508652	T37_S20
ERR3508653	T37_S20
ERR3508654	T38_S05
ERR3508655	T38_S05
ERR3508656	T38_S05
ERR3508657	T38_S05
ERR3508658	T38_S10
ERR3508659	T38_S10
ERR3508660	T38_S10
ERR3508661	T38_S10
ERR3508662	T38_S15
ERR3508663	T38_S15
ERR3508664	T38_S15
ERR3508665	T38_S15
ERR3508666	T38_S20
ERR3508667	T38_S20
ERR3508668	T38_S20
ERR3508669	T38_S20
ERR3508670	T39_S05
ERR3508671	T39_S05
ERR3508672	T39_S05
ERR3508673	T39_S05
ERR3508674	T39_S15
ERR3508675	T39_S15
ERR3508676	T39_S15
ERR3508677	T39_S15
ERR3508678	T39_S20
ERR3508679	T39_S20
ERR3508680	T39_S20
ERR3508681	T39_S20
ERR3508682	T39_S25
ERR3508683	T39_S25
ERR3508684	T39_S25
ERR3508685	T39_S25
ERR3508686	T40_S05
ERR3508687	T40_S05
ERR3508688	T40_S05
ERR3508689	T40_S05
ERR3508690	T40_S10
ERR3508691	T40_S10
ERR3508692	T40_S10
ERR3508693	T40_S10
ERR3508694	T40_S15
ERR3508695	T40_S15
ERR3508696	T40_S15
ERR3508697	T40_S15
ERR3508698	T40_S20
ERR3508699	T40_S20
ERR3508700	T40_S20
ERR3508701	T40_S20
ERR3508702	T41_S05
ERR3508703	T41_S05
ERR3508704	T41_S05
ERR3508705	T41_S05
ERR3508706	T41_S10
ERR3508707	T41_S10
ERR3508708	T41_S10
ERR3508709	T41_S10
ERR3508710	T41_S15
ERR3508711	T41_S15
ERR3508712	T41_S15
ERR3508713	T41_S15
ERR3508714	T41_S20
ERR3508715	T41_S20
ERR3508716	T41_S20
ERR3508717	T41_S20
ERR3508718	T42_S05
ERR3508719	T42_S05
ERR3508720	T42_S05
ERR3508721	T42_S05
ERR3508722	T42_S15
ERR3508723	T42_S15
ERR3508724	T42_S15
ERR3508725	T42_S15
ERR3508726	T42_S20
ERR3508727	T42_S20
ERR3508728	T42_S20
ERR3508729	T42_S20
ERR3508730	T42_S25
ERR3508731	T42_S25
ERR3508732	T42_S25
ERR3508733	T42_S25
ERR3508734	T43_S05
ERR3508735	T43_S05
ERR3508736	T43_S05
ERR3508737	T43_S05
ERR3508738	T43_S10
ERR3508739	T43_S10
ERR3508740	T43_S10
ERR3508741	T43_S10
ERR3508742	T43_S15
ERR3508743	T43_S15
ERR3508744	T43_S15
ERR3508745	T43_S15
ERR3508746	T43_S20
ERR3508747	T43_S20
ERR3508748	T43_S20
ERR3508749	T43_S20
ERR3508750	T44_S05
ERR3508751	T44_S05
ERR3508752	T44_S05
ERR3508753	T44_S05
ERR3508754	T44_S10
ERR3508755	T44_S10
ERR3508756	T44_S10
ERR3508757	T44_S10
ERR3508758	T44_S15
ERR3508759	T44_S15
ERR3508760	T44_S15
ERR3508761	T44_S15
ERR3508762	T44_S20
ERR3508763	T44_S20
ERR3508764	T44_S20
ERR3508765	T44_S20
ERR3508766	T45_S05
ERR3508767	T45_S05
ERR3508768	T45_S05
ERR3508769	T45_S05
ERR3508770	T45_S10
ERR3508771	T45_S10
ERR3508772	T45_S10
ERR3508773	T45_S10
ERR3508774	T45_S15
ERR3508775	T45_S15
ERR3508776	T45_S15
ERR3508777	T45_S15
ERR3508778	T45_S20
ERR3508779	T45_S20
ERR3508780	T45_S20
ERR3508781	T45_S20
ERR3508782	T46_S05
ERR3508783	T46_S05
ERR3508784	T46_S05
ERR3508785	T46_S05
ERR3508786	T46_S10
ERR3508787	T46_S10
ERR3508788	T46_S10
ERR3508789	T46_S10
ERR3508790	T46_S15
ERR3508791	T46_S15
ERR3508792	T46_S15
ERR3508793	T46_S15
ERR3508794	T46_S20
ERR3508795	T46_S20
ERR3508796	T46_S20
ERR3508797	T46_S20
